[
    {
        "title": "Java: Hello World!",
        "lang": "Java",
        "code": "public class HelloWorld{\n\n    public static void main(String[] args){\n        System.out.println(\"Hello World!\");\n    }\n}\n",
        "user": "gunsmith_bell"
    },
    {
        "title": "Python: Hello World!",
        "lang": "Python",
        "code": "print(\"Hello World!\")\n",
        "user": "miss.beth"
    },
    {
        "title": "golang: Hello World!",
        "lang": "go",
        "code": "package main\n\nimport \"fmt\"\n\nfunc main(){\n    fmt.Println(\"Hello World\")\n}\n",
        "user": "dutch_plan_master"
    }
]